<svg xmlns="http://www.w3.org/2000/svg" xmlns:xlink="http://www.w3.org/1999/xlink" width="998" height="1346" viewBox="0 0 998 1346">
  <defs>
    <radialGradient id="radial-gradient" cx="0.5" cy="0.5" r="0.5" gradientUnits="objectBoundingBox">
      <stop offset="0" stop-color="#00a896"/>
      <stop offset="1" stop-color="#00544b"/>
    </radialGradient>
    <linearGradient id="linear-gradient" x1="0.5" x2="0.5" y2="1" gradientUnits="objectBoundingBox">
      <stop offset="0" stop-color="#028090"/>
      <stop offset="1" stop-color="#014048"/>
    </linearGradient>
    <linearGradient id="linear-gradient-2" x1="0.5" x2="0.046" y2="0.61" gradientUnits="objectBoundingBox">
      <stop offset="0" stop-color="#02c39a"/>
      <stop offset="1" stop-color="#01624d"/>
    </linearGradient>
  </defs>
  <g id="Group_3" data-name="Group 3" transform="translate(1809 -186)">
    <path id="Path_47" data-name="Path 47" d="M728.767-.312,998,1002H0Z" transform="translate(-1809 530)" fill="url(#radial-gradient)"/>
    <path id="Path_48" data-name="Path 48" d="M269.233-.312,0,1002H998Z" transform="translate(-1809 530)" fill="url(#linear-gradient)"/>
    <path id="Polygon_37" data-name="Polygon 37" d="M229,0,458,317H0Z" transform="translate(-1081 847) rotate(180)" fill="#f0f3bd"/>
    <path id="Polygon_38" data-name="Polygon 38" d="M229,0,458,344H0Z" transform="translate(-1081 530) rotate(180)" fill="url(#linear-gradient-2)"/>
  </g>
</svg>
