<svg xmlns="http://www.w3.org/2000/svg" xmlns:xlink="http://www.w3.org/1999/xlink" width="29816" height="17403" viewBox="0 0 29816 17403">
  <defs>
    <style>
      .cls-1 {
        stroke: #707070;
        fill: url(#linear-gradient);
      }

      .cls-2 {
        stroke: none;
      }

      .cls-3 {
        fill: none;
      }
    </style>
    <linearGradient id="linear-gradient" x1="0.5" x2="1.015" y2="0.651" gradientUnits="objectBoundingBox">
      <stop offset="0" stop-color="#00a896"/>
      <stop offset="0.204" stop-color="#13a293" stop-opacity="0.302"/>
      <stop offset="1" stop-color="#f0f3bd" stop-opacity="0.749"/>
    </linearGradient>
  </defs>
  <g id="Rectangle_2" data-name="Rectangle 2" class="cls-1">
    <rect class="cls-2" width="29816" height="17403"/>
    <rect class="cls-3" x="0.5" y="0.5" width="29815" height="17402"/>
  </g>
</svg>
